2021-09-29T12:53:35.2436537+07:00  [INF] Application started. Press Ctrl+C to shut down. (dcaefe54)
2021-09-29T12:53:35.2661910+07:00  [INF] Hosting environment: "Development" (c3307c92)
2021-09-29T12:53:35.2663373+07:00  [INF] Content root path: "C:\Users\danim\source\repos\EOS\EOS.Web" (b5d60022)
2021-09-29T12:54:06.0213842+07:00 80000004-0002-fa00-b63f-84710c7967bb [INF] User logged in. (fdce0db4)
2021-09-29T13:07:33.4119882+07:00  [INF] Application started. Press Ctrl+C to shut down. (dcaefe54)
2021-09-29T13:07:33.4275106+07:00  [INF] Hosting environment: "Development" (c3307c92)
2021-09-29T13:07:33.4368675+07:00  [INF] Content root path: "C:\Users\danim\source\repos\EOS\EOS.Web" (b5d60022)
2021-09-29T13:23:06.9720553+07:00  [INF] Application started. Press Ctrl+C to shut down. (dcaefe54)
2021-09-29T13:23:06.9885349+07:00  [INF] Hosting environment: "Development" (c3307c92)
2021-09-29T13:23:06.9937196+07:00  [INF] Content root path: "C:\Users\danim\source\repos\EOS\EOS.Web" (b5d60022)
2021-09-29T14:01:23.7431215+07:00  [INF] Application started. Press Ctrl+C to shut down. (dcaefe54)
2021-09-29T14:01:23.7530609+07:00  [INF] Hosting environment: "Development" (c3307c92)
2021-09-29T14:01:23.7532210+07:00  [INF] Content root path: "C:\Users\danim\source\repos\EOS\EOS.Web" (b5d60022)
2021-09-29T14:04:20.6066968+07:00  [INF] Application started. Press Ctrl+C to shut down. (dcaefe54)
2021-09-29T14:04:20.6172212+07:00  [INF] Hosting environment: "Development" (c3307c92)
2021-09-29T14:04:20.6173625+07:00  [INF] Content root path: "C:\Users\danim\source\repos\EOS\EOS.Web" (b5d60022)
2021-09-29T14:04:27.7843480+07:00 80000010-0001-f900-b63f-84710c7967bb [INF] User logged in. (fdce0db4)
2021-09-29T14:05:05.5768959+07:00  [INF] Application started. Press Ctrl+C to shut down. (dcaefe54)
2021-09-29T14:05:05.5839734+07:00  [INF] Hosting environment: "Development" (c3307c92)
2021-09-29T14:05:05.5841444+07:00  [INF] Content root path: "C:\Users\danim\source\repos\EOS\EOS.Web" (b5d60022)
2021-09-29T14:05:56.2885725+07:00  [INF] Application started. Press Ctrl+C to shut down. (dcaefe54)
2021-09-29T14:05:56.3072281+07:00  [INF] Hosting environment: "Development" (c3307c92)
2021-09-29T14:05:56.3073712+07:00  [INF] Content root path: "C:\Users\danim\source\repos\EOS\EOS.Web" (b5d60022)
2021-09-29T14:15:09.9683170+07:00  [INF] Application started. Press Ctrl+C to shut down. (dcaefe54)
2021-09-29T14:15:10.0014272+07:00  [INF] Hosting environment: "Development" (c3307c92)
2021-09-29T14:15:10.0015702+07:00  [INF] Content root path: "C:\Users\danim\source\repos\EOS\EOS.Web" (b5d60022)
2021-09-29T14:15:51.4497581+07:00  [INF] Application started. Press Ctrl+C to shut down. (dcaefe54)
2021-09-29T14:15:51.4582080+07:00  [INF] Hosting environment: "Development" (c3307c92)
2021-09-29T14:15:51.4583590+07:00  [INF] Content root path: "C:\Users\danim\source\repos\EOS\EOS.Web" (b5d60022)
2021-09-29T14:16:42.8712058+07:00  [INF] Application started. Press Ctrl+C to shut down. (dcaefe54)
2021-09-29T14:16:42.8807408+07:00  [INF] Hosting environment: "Development" (c3307c92)
2021-09-29T14:16:42.8808726+07:00  [INF] Content root path: "C:\Users\danim\source\repos\EOS\EOS.Web" (b5d60022)
2021-09-29T14:17:45.5226987+07:00  [INF] Application started. Press Ctrl+C to shut down. (dcaefe54)
2021-09-29T14:17:45.5410946+07:00  [INF] Hosting environment: "Development" (c3307c92)
2021-09-29T14:17:45.5412542+07:00  [INF] Content root path: "C:\Users\danim\source\repos\EOS\EOS.Web" (b5d60022)
2021-09-29T14:18:06.2534298+07:00  [INF] Application started. Press Ctrl+C to shut down. (dcaefe54)
2021-09-29T14:18:06.2617066+07:00  [INF] Hosting environment: "Development" (c3307c92)
2021-09-29T14:18:06.2618720+07:00  [INF] Content root path: "C:\Users\danim\source\repos\EOS\EOS.Web" (b5d60022)
2021-09-29T14:18:34.5057936+07:00  [INF] Application started. Press Ctrl+C to shut down. (dcaefe54)
2021-09-29T14:18:34.5171963+07:00  [INF] Hosting environment: "Development" (c3307c92)
2021-09-29T14:18:34.5173284+07:00  [INF] Content root path: "C:\Users\danim\source\repos\EOS\EOS.Web" (b5d60022)
2021-09-29T14:20:26.6874075+07:00  [INF] Application started. Press Ctrl+C to shut down. (dcaefe54)
2021-09-29T14:20:26.6958781+07:00  [INF] Hosting environment: "Development" (c3307c92)
2021-09-29T14:20:26.6961170+07:00  [INF] Content root path: "C:\Users\danim\source\repos\EOS\EOS.Web" (b5d60022)
2021-09-29T14:21:24.2840346+07:00  [INF] Application started. Press Ctrl+C to shut down. (dcaefe54)
2021-09-29T14:21:24.2939397+07:00  [INF] Hosting environment: "Development" (c3307c92)
2021-09-29T14:21:24.2940890+07:00  [INF] Content root path: "C:\Users\danim\source\repos\EOS\EOS.Web" (b5d60022)
2021-09-29T14:21:42.9906542+07:00  [INF] Application started. Press Ctrl+C to shut down. (dcaefe54)
2021-09-29T14:21:43.0072444+07:00  [INF] Hosting environment: "Development" (c3307c92)
2021-09-29T14:21:43.0122537+07:00  [INF] Content root path: "C:\Users\danim\source\repos\EOS\EOS.Web" (b5d60022)
2021-09-29T14:25:52.5876405+07:00  [INF] Application started. Press Ctrl+C to shut down. (dcaefe54)
2021-09-29T14:25:52.5987084+07:00  [INF] Hosting environment: "Development" (c3307c92)
2021-09-29T14:25:52.6011173+07:00  [INF] Content root path: "C:\Users\danim\source\repos\EOS\EOS.Web" (b5d60022)
2021-09-29T14:29:19.6177251+07:00  [INF] Application started. Press Ctrl+C to shut down. (dcaefe54)
2021-09-29T14:29:19.6310269+07:00  [INF] Hosting environment: "Development" (c3307c92)
2021-09-29T14:29:19.6311610+07:00  [INF] Content root path: "C:\Users\danim\source\repos\EOS\EOS.Web" (b5d60022)
2021-09-29T14:29:26.1580390+07:00 80000021-0001-f800-b63f-84710c7967bb [INF] User logged in. (fdce0db4)
2021-09-29T14:34:22.9105776+07:00  [INF] Application started. Press Ctrl+C to shut down. (dcaefe54)
2021-09-29T14:34:22.9210563+07:00  [INF] Hosting environment: "Development" (c3307c92)
2021-09-29T14:34:22.9246799+07:00  [INF] Content root path: "C:\Users\danim\source\repos\EOS\EOS.Web" (b5d60022)
2021-09-29T14:58:17.9872590+07:00  [INF] Application started. Press Ctrl+C to shut down. (dcaefe54)
2021-09-29T14:58:17.9958388+07:00  [INF] Hosting environment: "Development" (c3307c92)
2021-09-29T14:58:17.9959849+07:00  [INF] Content root path: "C:\Users\danim\source\repos\EOS\EOS.Web" (b5d60022)
2021-09-29T14:58:36.7634949+07:00 8000001e-0000-fa00-b63f-84710c7967bb [WRN] Invalid password for user "8acc4fc2-dc1b-4913-a618-aa13f9f8fb73". (c2dce6c7)
2021-09-29T14:58:36.7659343+07:00 8000001e-0000-fa00-b63f-84710c7967bb [WRN] User "8acc4fc2-dc1b-4913-a618-aa13f9f8fb73" failed to provide the correct password. (ec8d2479)
2021-09-29T14:58:46.3321436+07:00 80000020-0000-fa00-b63f-84710c7967bb [INF] User logged in. (fdce0db4)
2021-09-29T14:58:58.1523816+07:00 8000001a-0000-f800-b63f-84710c7967bb [INF] User logged out. (f9c27106)
2021-09-29T14:59:06.2489609+07:00 8000001e-0000-f800-b63f-84710c7967bb [INF] User logged in. (fdce0db4)
