2021-12-09T11:02:55.0182253+07:00  [INF] Application started. Press Ctrl+C to shut down. (dcaefe54)
2021-12-09T11:02:55.0244012+07:00  [INF] Hosting environment: "Development" (c3307c92)
2021-12-09T11:02:55.0245079+07:00  [INF] Content root path: "C:\Users\Dani Ridwan\Documents\DMR Work\Apps\EOS\EOS.Web" (b5d60022)
2021-12-09T11:03:07.4755857+07:00 80000022-0004-fa00-b63f-84710c7967bb [INF] User logged in. (fdce0db4)
2021-12-09T11:33:53.7788210+07:00  [INF] Application started. Press Ctrl+C to shut down. (dcaefe54)
2021-12-09T11:33:53.7852056+07:00  [INF] Hosting environment: "Development" (c3307c92)
2021-12-09T11:33:53.7852692+07:00  [INF] Content root path: "C:\Users\Dani Ridwan\Documents\DMR Work\Apps\EOS\EOS.Web" (b5d60022)
2021-12-09T11:34:01.6783041+07:00 8000002f-0003-fb00-b63f-84710c7967bb [INF] User logged in. (fdce0db4)
2021-12-09T11:34:28.8889973+07:00  [INF] Application started. Press Ctrl+C to shut down. (dcaefe54)
2021-12-09T11:34:28.8948637+07:00  [INF] Hosting environment: "Development" (c3307c92)
2021-12-09T11:34:28.8949800+07:00  [INF] Content root path: "C:\Users\Dani Ridwan\Documents\DMR Work\Apps\EOS\EOS.Web" (b5d60022)
2021-12-09T11:34:46.5412267+07:00  [INF] Application started. Press Ctrl+C to shut down. (dcaefe54)
2021-12-09T11:34:46.5477196+07:00  [INF] Hosting environment: "Development" (c3307c92)
2021-12-09T11:34:46.5478994+07:00  [INF] Content root path: "C:\Users\Dani Ridwan\Documents\DMR Work\Apps\EOS\EOS.Web" (b5d60022)
2021-12-09T11:35:07.5713011+07:00  [INF] Application started. Press Ctrl+C to shut down. (dcaefe54)
2021-12-09T11:35:07.5773064+07:00  [INF] Hosting environment: "Development" (c3307c92)
2021-12-09T11:35:07.5774180+07:00  [INF] Content root path: "C:\Users\Dani Ridwan\Documents\DMR Work\Apps\EOS\EOS.Web" (b5d60022)
2021-12-09T11:35:35.5712401+07:00  [INF] Application started. Press Ctrl+C to shut down. (dcaefe54)
2021-12-09T11:35:35.5790759+07:00  [INF] Hosting environment: "Development" (c3307c92)
2021-12-09T11:35:35.5791968+07:00  [INF] Content root path: "C:\Users\Dani Ridwan\Documents\DMR Work\Apps\EOS\EOS.Web" (b5d60022)
2021-12-09T11:35:45.7732276+07:00  [INF] Application started. Press Ctrl+C to shut down. (dcaefe54)
2021-12-09T11:35:45.7788168+07:00  [INF] Hosting environment: "Development" (c3307c92)
2021-12-09T11:35:45.7788778+07:00  [INF] Content root path: "C:\Users\Dani Ridwan\Documents\DMR Work\Apps\EOS\EOS.Web" (b5d60022)
2021-12-09T11:36:07.6648971+07:00  [INF] Application started. Press Ctrl+C to shut down. (dcaefe54)
2021-12-09T11:36:07.6704828+07:00  [INF] Hosting environment: "Development" (c3307c92)
2021-12-09T11:36:07.6705743+07:00  [INF] Content root path: "C:\Users\Dani Ridwan\Documents\DMR Work\Apps\EOS\EOS.Web" (b5d60022)
2021-12-09T11:39:46.4036888+07:00  [INF] Application started. Press Ctrl+C to shut down. (dcaefe54)
2021-12-09T11:39:46.4093845+07:00  [INF] Hosting environment: "Development" (c3307c92)
2021-12-09T11:39:46.4094732+07:00  [INF] Content root path: "C:\Users\Dani Ridwan\Documents\DMR Work\Apps\EOS\EOS.Web" (b5d60022)
2021-12-09T11:40:09.2968579+07:00  [INF] Application started. Press Ctrl+C to shut down. (dcaefe54)
2021-12-09T11:40:09.3033504+07:00  [INF] Hosting environment: "Development" (c3307c92)
2021-12-09T11:40:09.3036261+07:00  [INF] Content root path: "C:\Users\Dani Ridwan\Documents\DMR Work\Apps\EOS\EOS.Web" (b5d60022)
2021-12-09T11:40:43.4379644+07:00  [INF] Application started. Press Ctrl+C to shut down. (dcaefe54)
2021-12-09T11:40:43.4472527+07:00  [INF] Hosting environment: "Development" (c3307c92)
2021-12-09T11:40:43.4473870+07:00  [INF] Content root path: "C:\Users\Dani Ridwan\Documents\DMR Work\Apps\EOS\EOS.Web" (b5d60022)
2021-12-09T11:41:04.7761949+07:00  [INF] Application started. Press Ctrl+C to shut down. (dcaefe54)
2021-12-09T11:41:04.7813431+07:00  [INF] Hosting environment: "Development" (c3307c92)
2021-12-09T11:41:04.7816005+07:00  [INF] Content root path: "C:\Users\Dani Ridwan\Documents\DMR Work\Apps\EOS\EOS.Web" (b5d60022)
2021-12-09T11:41:25.1194530+07:00  [INF] Application started. Press Ctrl+C to shut down. (dcaefe54)
2021-12-09T11:41:25.1255867+07:00  [INF] Hosting environment: "Development" (c3307c92)
2021-12-09T11:41:25.1256507+07:00  [INF] Content root path: "C:\Users\Dani Ridwan\Documents\DMR Work\Apps\EOS\EOS.Web" (b5d60022)
2021-12-09T11:43:41.5080928+07:00  [INF] Application started. Press Ctrl+C to shut down. (dcaefe54)
2021-12-09T11:43:41.5163282+07:00  [INF] Hosting environment: "Development" (c3307c92)
2021-12-09T11:43:41.5164270+07:00  [INF] Content root path: "C:\Users\Dani Ridwan\Documents\DMR Work\Apps\EOS\EOS.Web" (b5d60022)
2021-12-09T11:45:09.3582538+07:00  [INF] Application started. Press Ctrl+C to shut down. (dcaefe54)
2021-12-09T11:45:09.3656733+07:00  [INF] Hosting environment: "Development" (c3307c92)
2021-12-09T11:45:09.3657571+07:00  [INF] Content root path: "C:\Users\Dani Ridwan\Documents\DMR Work\Apps\EOS\EOS.Web" (b5d60022)
2021-12-09T11:45:24.4819263+07:00  [INF] Application started. Press Ctrl+C to shut down. (dcaefe54)
2021-12-09T11:45:24.4870912+07:00  [INF] Hosting environment: "Development" (c3307c92)
2021-12-09T11:45:24.4871672+07:00  [INF] Content root path: "C:\Users\Dani Ridwan\Documents\DMR Work\Apps\EOS\EOS.Web" (b5d60022)
2021-12-09T11:46:15.7018526+07:00  [INF] Application started. Press Ctrl+C to shut down. (dcaefe54)
2021-12-09T11:46:15.7074320+07:00  [INF] Hosting environment: "Development" (c3307c92)
2021-12-09T11:46:15.7074946+07:00  [INF] Content root path: "C:\Users\Dani Ridwan\Documents\DMR Work\Apps\EOS\EOS.Web" (b5d60022)
2021-12-09T11:47:16.2857467+07:00  [INF] Application started. Press Ctrl+C to shut down. (dcaefe54)
2021-12-09T11:47:16.2931863+07:00  [INF] Hosting environment: "Development" (c3307c92)
2021-12-09T11:47:16.2932772+07:00  [INF] Content root path: "C:\Users\Dani Ridwan\Documents\DMR Work\Apps\EOS\EOS.Web" (b5d60022)
2021-12-09T13:04:58.7439710+07:00  [INF] Application started. Press Ctrl+C to shut down. (dcaefe54)
2021-12-09T13:04:58.7559548+07:00  [INF] Hosting environment: "Development" (c3307c92)
2021-12-09T13:04:58.7560995+07:00  [INF] Content root path: "C:\Users\Dani Ridwan\Documents\DMR Work\Apps\EOS\EOS.Web" (b5d60022)
2021-12-09T13:08:58.6870852+07:00 8000006d-0005-ff00-b63f-84710c7967bb [INF] User logged in. (fdce0db4)
2021-12-09T14:03:03.9103761+07:00  [INF] Application started. Press Ctrl+C to shut down. (dcaefe54)
2021-12-09T14:03:03.9155135+07:00  [INF] Hosting environment: "Development" (c3307c92)
2021-12-09T14:03:03.9156131+07:00  [INF] Content root path: "C:\Users\Dani Ridwan\Documents\DMR Work\Apps\EOS\EOS.Web" (b5d60022)
2021-12-09T14:03:12.2844996+07:00 80000034-0007-ff00-b63f-84710c7967bb [INF] User logged in. (fdce0db4)
2021-12-09T14:04:30.9379324+07:00 8000001d-0000-f900-b63f-84710c7967bb [INF] User logged out. (f9c27106)
2021-12-09T14:04:36.5661790+07:00 80000020-0000-f900-b63f-84710c7967bb [INF] User logged in. (fdce0db4)
